%YAML 1.1
%TAG !u! tag:unity3d.com,2011:
--- !u!114 &11400000
MonoBehaviour:
  m_ObjectHideFlags: 0
  m_CorrespondingSourceObject: {fileID: 0}
  m_PrefabInstance: {fileID: 0}
  m_PrefabAsset: {fileID: 0}
  m_GameObject: {fileID: 0}
  m_Enabled: 1
  m_EditorHideFlags: 0
  m_Script: {fileID: 11500000, guid: aeaa1ea54fc16da43997f4788feae4e6, type: 3}
  m_Name: Level Data
  m_EditorClassIdentifier: 
  Levels:
  - ChaseTime: 20
    ScatterTime: 7
  - ChaseTime: 20
    ScatterTime: 7
  - ChaseTime: 20
    ScatterTime: 5
  - ChaseTime: 99999
    ScatterTime: 5
